-40 88 -8 832
-992
-992
-112 -8 856
992
-8 -16 -24 -32 -40 832
-32 952
-56 -56 56 -56 736
992
-80 -80 -80 -160 560
-32 -32 -32 56 -32 72 -32 648
96 -120 760
-32 952
-184 208 -216 -312 40
-256 -256 -256 200
-72 -48 -40 808
-80 176 -160 552
-320 -240 416
-160 -240 576
-8 -16 -24 920
-992
-32 -24 -16 -8 -32 -24 -16 -8 768
56 -24 24 -24 832
64 -64 -56 -56 -48 664
-8 -8 8 -8 8 -8 -8 -8 24 -8 -8 -8 -8 -8 -8 -8 720
