30

5

5
-1

5
5

5
5
-1

5
5
-2

5
5
-1
-1

5
5
-2
-1

5
5
5

5
5
5
-1

5
5
5
-2

5
5
5
-3

5
5
5
-1
-1

5
5
5
-1
-2

5
5
5
-2
-1

5
5
5
-2
-2

5
5
5
-3
-1

5
5
5
-3
-2

5
5
5
-1
-1
-1

5
5
5
-1
-2
-1

5
5
5
-2
-1
-1

5
5
5
-2
-2
-1

5
5
5
-3
-1
-1

5
5
5
-3
-2
-1

5
5
5
5
5
5
5
-1
-2
5
5
-1
-2
5
5
-1
-2
5
5
-1
-2
5
5
-1
-2
-3
-2
-1
5
5
-1
-1
-1
-1

1
2
3
4
5
6
7
8
9
10
11
-1
-1
-1
-1
-1
-1
-1

26
26
26
-1
-1
-1

27
27
-2
-1

28
28
-2
-1

29
29
29
-3
-2
-1

30
30
30
-2
30
